{"meta": {"next": "/api/clips/?limit=2&offset=4", "total_count": 10, "previous": "/api/clips/?limit=2&offset=0", "limit": 2, "offset": 2}, "objects": [{"url_domain": "karrisaarinen.com", "updated": "1335090586", "is_starred": false, "title": "Karri Saarinen", "url": "http://karrisaarinen.com/", "notes": "Cool site, bro", "created": "1335090567", "list": "/api/lists/44525/", "id": 1589450, "resource_uri": "/api/clips/1589450/"}]}
