{"meta": {"next": "/api/lists/?limit=2&offset=4", "total_count": 40, "previous": "/api/lists/?limit=2&offset=0", "limit": 2, "offset": 2}, "objects": [{"rss_url": "https://kippt.com/feed/vesan/0VLW0SSjVBRJ1oQEpe9OmSf1q2Q6lvq/inspiration", "updated": "1335090586", "title": "Inspiration", "created": "1335090037", "slug": "inspiration", "id": 10, "resource_uri": "/api/lists/10/"}, {"rss_url": "https://kippt.com/feed/vesan/0VLW0SSjVBRJ1oQEpe9OmSf1q2Q6lvq/moikka-vesa", "updated": "1319441679", "title": "Moikka Vesa!", "created": "1319435972", "slug": "moikka-vesa", "id": 134, "resource_uri": "/api/lists/134/"}, {"rss_url": "https://kippt.com/feed/vesan/0VLW0SSjVBRJ1oQEpe9OmSf1q2Q6lvq/read-later", "updated": "1319434196", "title": "Read Later", "created": "1319434196", "slug": "read-later", "id": 133, "resource_uri": "/api/lists/133/"}, {"rss_url": "https://kippt.com/feed/vesan/0VLW0SSjVBRJ1oQEpe9OmSf1q2Q6lvq/inbox", "updated": "1319434196", "title": "Inbox", "created": "1319434196", "slug": "inbox", "id": 132, "resource_uri": "/api/lists/132/"}]}
